<?xml version="1.0" encoding="UTF-8" standalone="no"?>
<svg
   xmlns:dc="http://purl.org/dc/elements/1.1/"
   xmlns:cc="http://creativecommons.org/ns#"
   xmlns:rdf="http://www.w3.org/1999/02/22-rdf-syntax-ns#"
   xmlns:svg="http://www.w3.org/2000/svg"
   xmlns="http://www.w3.org/2000/svg"
   xmlns:sodipodi="http://sodipodi.sourceforge.net/DTD/sodipodi-0.dtd"
   xmlns:inkscape="http://www.inkscape.org/namespaces/inkscape"
   data-name="Layer 1"
   viewBox="0 0 24 30"
   x="0px"
   y="0px"
   version="1.1"
   id="svg10"
   sodipodi:docname="gallery.svg"
   inkscape:version="0.92.3 (2405546, 2018-03-11)">
  <metadata
     id="metadata16">
    <rdf:RDF>
      <cc:Work
         rdf:about="">
        <dc:format>image/svg+xml</dc:format>
        <dc:type
           rdf:resource="http://purl.org/dc/dcmitype/StillImage" />
      </cc:Work>
    </rdf:RDF>
  </metadata>
  <defs
     id="defs14" />
  <sodipodi:namedview
     pagecolor="#ffffff"
     bordercolor="#666666"
     borderopacity="1"
     objecttolerance="10"
     gridtolerance="10"
     guidetolerance="10"
     inkscape:pageopacity="0"
     inkscape:pageshadow="2"
     inkscape:window-width="640"
     inkscape:window-height="480"
     id="namedview12"
     showgrid="false"
     inkscape:zoom="7.8666667"
     inkscape:cx="12"
     inkscape:cy="-5.3389831"
     inkscape:window-x="0"
     inkscape:window-y="0"
     inkscape:window-maximized="0"
     inkscape:current-layer="svg10" />
  <title
     id="title2">Multimedia1</title>
  <path
     d="M3.5,11A2.5,2.5,0,1,0,6,8.5,2.5,2.5,0,0,0,3.5,11ZM6,10.5a.5.5,0,1,1-.5.5A.5.5,0,0,1,6,10.5ZM22.5.5H7.5a1,1,0,0,0-1,1v2h-2a1,1,0,0,0-1,1v2h-2a1,1,0,0,0-1,1v15a1,1,0,0,0,1,1h15a1,1,0,0,0,.35-.07l.07,0a.8.8,0,0,0,.27-.18l0,0a.69.69,0,0,0,.11-.13.26.26,0,0,0,0-.08.67.67,0,0,0,.07-.18.71.71,0,0,0,0-.2.24.24,0,0,0,0-.08v-2h2a1,1,0,0,0,1-1v-2h2a1,1,0,0,0,1-1V1.5A1,1,0,0,0,22.5.5ZM6,8.5h9.5v5.59l-1.29-1.3a1,1,0,0,0-1.42,0L9,16.56l-3-1.9a1,1,0,0,0-1.25.13L2.5,17.09V8.5Zm4.76,9.16,2.74-2.75,2,2v3.77ZM2.5,19.91l3.14-3.14,7.43,4.73H2.5Zm16-1.41h-1V7.5a1,1,0,0,0-1-1H5.5v-1h13Zm3-3h-1V4.5a1,1,0,0,0-1-1H8.5v-1h13Z"
     id="path4" />
</svg>
